{
  "project_info": {
    "project_number": "20920751992",
    "firebase_url": "https://examenandroid-8124b.firebaseio.com",
    "project_id": "examenandroid-8124b",
    "storage_bucket": "examenandroid-8124b.appspot.com"
  },
  "client": [
    {
      "client_info": {
        "mobilesdk_app_id": "1:20920751992:android:c9d7a8b414e6dca0",
        "android_client_info": {
          "package_name": "com.example.sergio.examen"
        }
      },
      "oauth_client": [
        {
          "client_id": "20920751992-32ajdg9ndpjlan937joe79qi5arsaesb.apps.googleusercontent.com",
          "client_type": 1,
          "android_info": {
            "package_name": "com.example.sergio.examen",
            "certificate_hash": "5bee5ca372d3f864fcb2882322372c2598e3c8e5"
          }
        },
        {
          "client_id": "20920751992-mut8q5l1uk3d42adhqnbng3mph4td328.apps.googleusercontent.com",
          "client_type": 3
        }
      ],
      "api_key": [
        {
          "current_key": "AIzaSyCpf_y9gARZalfq1QU9PDvvbO0KUakRz5Y"
        }
      ],
      "services": {
        "analytics_service": {
          "status": 1
        },
        "appinvite_service": {
          "status": 2,
          "other_platform_oauth_client": [
            {
              "client_id": "20920751992-mut8q5l1uk3d42adhqnbng3mph4td328.apps.googleusercontent.com",
              "client_type": 3
            }
          ]
        },
        "ads_service": {
          "status": 2
        }
      }
    }
  ],
  "configuration_version": "1"
}